
<svg width="20px" height="20px" viewBox="0 0 20 20" version="1.1" xmlns="http://www.w3.org/2000/svg" xmlns:xlink="http://www.w3.org/1999/xlink">
    <!-- Generator: Sketch 50.2 (55047) - http://www.bohemiancoding.com/sketch -->
    <desc>Created with Sketch.</desc>
    <defs></defs>
    <g id="Desktop" stroke="none" stroke-width="1" fill="none" fill-rule="evenodd">
        <g id="12_WhereToBuy" transform="translate(-870.000000, -305.000000)" fill="#FFE000">
            <path d="M889.619386,322.856245 L885.746088,318.983476 C888.493323,315.309557 887.935115,310.136842 884.46735,307.133857 C880.999584,304.130871 875.801175,304.318521 872.55887,307.563724 C869.316565,310.808927 869.13263,316.008431 872.137513,319.474713 C875.142397,322.940995 880.314546,323.495644 883.985839,320.7453 L887.856643,324.619315 C888.169641,324.943447 888.633145,325.07344 889.069005,324.959332 C889.504866,324.845225 889.845254,324.504774 889.95934,324.068833 C890.073426,323.632891 889.943457,323.169302 889.619386,322.856245 Z M878.764928,319.997179 C875.322438,319.997179 872.531749,317.205972 872.531749,313.762844 C872.531749,310.319716 875.322438,307.528509 878.764928,307.528509 C882.207418,307.528509 884.998107,310.319716 884.998107,313.762844 C884.998107,315.416293 884.341399,317.00202 883.172451,318.171185 C882.003503,319.34035 880.41807,319.997179 878.764928,319.997179 Z" id="search"></path>
        </g>
    </g>
</svg>